EDA
…
There doesn’t appear to be any notable association here.

diabetes %>% group_by(Diabetes_binary,Age) %>% summarize(count=n())

`summarise()` has grouped output by 'Diabetes_binary'. You can override using
the `.groups` argument.

# A tibble: 26 × 3
# Groups:   Diabetes_binary [2]
   Diabetes_binary Age   count
   <fct>           <fct> <int>
 1 No              18-24  5622
 2 No              25-29  7458
 3 No              30-34 10809
 4 No              35-39 13197
 5 No              40-44 15106
 6 No              45-49 18077
 7 No              50-54 23226
 8 No              55-59 26569
 9 No              60-64 27511
10 No              65-69 25636
# ℹ 16 more rows
…
