Modeling
…
Splitting the Data

Here, we will use the tidymodels frame work to split our data into training and test sets, with a 0.7/0.3 proportion. Luckily we have many many observations, so we shouldn’t have to worry much about too little data being in the training or test split.

set.seed(10)
diab_split<- initial_split(diabetes,prop=0.7)
diab_train<- training(diab_split)
diab_test<- testing(diab_split)
diab_train

# A tibble: 177,576 × 7
   Diabetes_binary Smoker Sex    Age   Education                 Income MentHlth
   <fct>           <fct>  <fct>  <fct> <fct>                     <fct>     <dbl>
 1 No              No     Male   40-44 college graduate          75 or…        0
 2 No              No     Female 35-39 college graduate          75 or…        0
 3 No              Yes    Female 50-54 some college or technica… 75 or…        0
 4 No              Yes    Male   70-74 high school graduate      less …        0
 5 No              No     Female 65-69 college graduate          less …        0
 6 No              No     Male   50-54 some college or technica… 75 or…        3
 7 No              No     Female 25-29 college graduate          75 or…        2
 8 No              Yes    Male   50-54 college graduate          75 or…        2
 9 No              Yes    Female 45-49 some college or technica… less …        0
10 Yes             No     Female 65-69 college graduate          75 or…        0
# ℹ 177,566 more rows
…
